Limited information Goodness-of-Fit tests • plFA
…
      Source: vignettes/ligof.Rmd
      ligof.Rmd

library(plFA)
#> ℹ Loading required package: lavaan
#> This is lavaan 0.6-19
#> lavaan is FREE software! Please report any bugs.
#> 
#> ── Conflicts ───────────────────────────────────────────────────── plFA 0.1.0 ──
#> ✖ plFA::cfa() masks lavaan::cfa()
library(lavaan.bingof)

(dat <- gen_data_bin(n = 1000, seed = 123))
#> # A tibble: 1,000 × 5
#>    y1    y2    y3    y4    y5   
#>    <ord> <ord> <ord> <ord> <ord>
#>  1 1     0     0     1     1    
#>  2 1     1     1     1     1    
#>  3 1     1     1     0     1    
#>  4 1     1     0     1     1    
#>  5 1     1     0     1     1    
#>  6 1     1     1     1     1    
#>  7 1     1     1     1     0    
#>  8 1     1     1     1     1    
#>  9 1     1     1     1     1    
#> 10 1     0     0     1     1    
#> # ℹ 990 more rows
…
